Response ID,Weapon,Walk State,Emotion,Grounded Posture.Shaky Posture,Natural Expression.Unnatural Expression,Weapon Held High.Weapon Held Low,Grimace Facial Expression.Cheerful Facial Expression,Ready to React.Relaxed,Prepared.Unprepared,Fast Walk Speed.Slow Walk Speed,Weapon Held in Front.Weapon Held Back,Leaning Back/Upright.Leaning Forward,Close Body Posture.Open Body Posture,Head Down/Low.Head Up/High,Offensive Stance.Defensive Stance
R_3hs970OyirNJuxa,axe,idle,rage,1,2,5,2,1,1,4,1,7,2,1,1
R_3hs970OyirNJuxa,axe,idle,confident,1,1,1,7,7,7,4,7,1,7,7,4
R_3hs970OyirNJuxa,axe,idle,fear,6,2,1,2,2,6,4,1,4,4,4,6
R_3hs970OyirNJuxa,axe,idle,defensive,1,5,7,1,1,1,4,1,4,2,4,2
R_3hs970OyirNJuxa,axe,walk,rage,1,2,7,2,1,1,6,1,7,2,1,1
R_3hs970OyirNJuxa,axe,walk,confident,1,2,1,7,7,5,2,7,1,7,6,4
R_3hs970OyirNJuxa,axe,walk,fear,7,2,5,2,1,5,5,3,7,1,1,5
R_3hs970OyirNJuxa,axe,walk,defensive,3,5,7,1,1,5,3,1,2,2,5,4
R_3hs970OyirNJuxa,sword,idle,rage,1,2,2,2,2,2,4,2,6,2,2,1
R_3hs970OyirNJuxa,sword,idle,confident,1,2,2,6,7,4,4,7,1,7,7,4
R_3hs970OyirNJuxa,sword,idle,fear,7,1,4,2,4,7,4,4,4,3,4,4
R_3hs970OyirNJuxa,sword,idle,defensive,2,5,3,1,1,3,4,1,5,1,1,7
R_3hs970OyirNJuxa,sword,walk,rage,1,3,6,2,3,3,6,2,6,1,1,1
R_3hs970OyirNJuxa,sword,walk,confident,1,2,1,7,7,6,5,7,1,7,6,4
R_3hs970OyirNJuxa,sword,walk,fear,7,2,4,2,1,6,3,4,4,3,3,4
R_3hs970OyirNJuxa,sword,walk,defensive,6,5,5,1,3,5,3,1,5,1,1,6
R_1N55ixvsNcJwOAD,axe,idle,rage,1,2,2,1,1,1,4,6,6,3,3,1
R_1N55ixvsNcJwOAD,axe,idle,confident,2,3,2,7,6,6,4,6,3,7,5,4
R_1N55ixvsNcJwOAD,axe,idle,fear,6,3,2,2,1,1,4,5,4,5,3,1
R_1N55ixvsNcJwOAD,axe,idle,defensive,3,6,3,4,2,2,4,2,4,3,4,7
R_1N55ixvsNcJwOAD,axe,walk,rage,2,3,4,2,2,2,3,5,5,5,3,2
R_1N55ixvsNcJwOAD,axe,walk,confident,2,2,2,7,7,7,3,6,4,5,4,4
R_1N55ixvsNcJwOAD,axe,walk,fear,6,5,5,2,3,6,5,7,5,5,3,2
R_1N55ixvsNcJwOAD,axe,walk,defensive,3,6,3,4,2,4,3,2,3,5,4,6
R_1N55ixvsNcJwOAD,sword,idle,rage,1,3,2,1,1,1,4,2,6,2,3,1
R_1N55ixvsNcJwOAD,sword,idle,confident,1,1,2,7,6,6,4,5,5,7,5,4
R_1N55ixvsNcJwOAD,sword,idle,fear,7,6,3,3,6,6,4,3,5,5,4,6
R_1N55ixvsNcJwOAD,sword,idle,defensive,2,7,3,4,2,3,4,3,5,2,3,7
R_1N55ixvsNcJwOAD,sword,walk,rage,1,1,3,1,2,2,2,5,5,3,3,2
R_1N55ixvsNcJwOAD,sword,walk,confident,2,1,3,7,7,7,4,6,4,7,4,4
R_1N55ixvsNcJwOAD,sword,walk,fear,6,3,3,3,3,5,3,3,4,5,4,4
R_1N55ixvsNcJwOAD,sword,walk,defensive,2,6,3,4,2,4,1,3,4,3,4,3
R_2y8IdsGG9c7BBvp,axe,idle,rage,1,4,4,1,1,1,7,4,3,5,3,4
R_2y8IdsGG9c7BBvp,axe,idle,confident,2,4,2,7,7,5,7,7,2,5,6,4
R_2y8IdsGG9c7BBvp,axe,idle,fear,6,4,4,4,4,7,7,4,3,4,7,4
R_2y8IdsGG9c7BBvp,axe,idle,defensive,2,5,4,3,2,2,7,1,3,5,7,7
R_2y8IdsGG9c7BBvp,axe,walk,rage,4,4,5,1,2,2,5,5,6,3,2,2
R_2y8IdsGG9c7BBvp,axe,walk,confident,5,4,3,7,7,5,3,7,2,5,6,4
R_2y8IdsGG9c7BBvp,axe,walk,fear,6,6,5,2,4,6,4,5,5,6,3,4
R_2y8IdsGG9c7BBvp,axe,walk,defensive,4,5,4,2,2,2,4,1,4,3,4,6
R_2y8IdsGG9c7BBvp,sword,idle,rage,2,4,5,1,1,1,7,2,2,5,5,2
R_2y8IdsGG9c7BBvp,sword,idle,confident,2,4,2,7,7,5,7,7,2,6,6,4
R_2y8IdsGG9c7BBvp,sword,idle,fear,6,4,3,2,4,7,7,4,3,4,4,4
R_2y8IdsGG9c7BBvp,sword,idle,defensive,2,6,4,4,4,4,7,2,4,2,3,5
R_2y8IdsGG9c7BBvp,sword,walk,rage,4,4,4,1,3,2,2,1,2,4,4,2
R_2y8IdsGG9c7BBvp,sword,walk,confident,5,4,2,7,7,6,2,7,2,7,6,4
R_2y8IdsGG9c7BBvp,sword,walk,fear,6,6,5,2,4,4,2,3,2,5,3,4
R_2y8IdsGG9c7BBvp,sword,walk,defensive,5,5,6,3,5,5,2,2,5,2,2,5
R_2sdoETvSDfrIrTV,axe,idle,rage,2,3,6,1,1,1,4,2,6,2,3,2
R_2sdoETvSDfrIrTV,axe,idle,confident,3,4,2,6,6,6,4,6,3,6,5,4
R_2sdoETvSDfrIrTV,axe,idle,fear,5,3,2,2,1,1,5,2,2,4,6,2
R_2sdoETvSDfrIrTV,axe,idle,defensive,2,7,5,3,2,2,4,2,5,4,4,2
R_2sdoETvSDfrIrTV,axe,walk,rage,5,3,5,2,2,2,6,2,6,2,2,2
R_2sdoETvSDfrIrTV,axe,walk,confident,4,5,3,5,5,5,3,3,6,6,6,4
R_2sdoETvSDfrIrTV,axe,walk,fear,6,5,6,3,3,3,5,3,3,5,3,1
R_2sdoETvSDfrIrTV,axe,walk,defensive,2,5,5,3,2,2,6,2,4,4,4,2
R_2sdoETvSDfrIrTV,sword,idle,rage,1,3,2,1,2,2,4,2,5,5,3,6
R_2sdoETvSDfrIrTV,sword,idle,confident,2,4,2,5,6,6,4,6,2,5,5,4
R_2sdoETvSDfrIrTV,sword,idle,fear,7,5,3,3,3,3,4,3,5,4,5,5
R_2sdoETvSDfrIrTV,sword,idle,defensive,2,7,3,3,3,3,4,2,5,2,4,6
R_2sdoETvSDfrIrTV,sword,walk,rage,5,3,5,3,3,3,6,3,6,3,3,5
R_2sdoETvSDfrIrTV,sword,walk,confident,4,5,2,6,6,6,3,6,2,6,6,4
R_2sdoETvSDfrIrTV,sword,walk,fear,5,7,5,1,2,2,4,2,5,4,3,3
R_2sdoETvSDfrIrTV,sword,walk,defensive,5,6,5,3,4,4,5,3,5,4,3,4
R_26xfdqsDjAZsOBj,axe,idle,rage,1,4,1,3,1,1,4,7,6,3,3,1
R_26xfdqsDjAZsOBj,axe,idle,confident,1,4,1,7,7,7,4,7,1,7,7,4
R_26xfdqsDjAZsOBj,axe,idle,fear,7,4,2,2,2,5,4,2,2,2,6,7
R_26xfdqsDjAZsOBj,axe,idle,defensive,1,4,1,1,1,1,4,1,1,7,7,1
R_26xfdqsDjAZsOBj,axe,walk,rage,2,4,5,4,1,1,3,4,6,2,2,1
R_26xfdqsDjAZsOBj,axe,walk,confident,2,4,1,7,7,7,4,7,1,7,7,4
R_26xfdqsDjAZsOBj,axe,walk,fear,6,5,6,2,2,1,7,7,4,6,3,1
R_26xfdqsDjAZsOBj,axe,walk,defensive,3,4,2,2,1,3,4,1,2,5,6,7
R_26xfdqsDjAZsOBj,sword,idle,rage,1,4,1,3,1,1,4,1,6,6,3,1
R_26xfdqsDjAZsOBj,sword,idle,confident,1,4,1,7,7,7,7,4,1,7,7,4
R_26xfdqsDjAZsOBj,sword,idle,fear,7,4,1,1,1,3,4,1,1,7,7,6
R_26xfdqsDjAZsOBj,sword,idle,defensive,1,4,1,1,3,5,4,1,1,1,3,7
R_26xfdqsDjAZsOBj,sword,walk,rage,3,4,3,3,1,1,3,1,6,2,3,1
R_26xfdqsDjAZsOBj,sword,walk,confident,2,4,1,7,7,7,7,7,1,7,7,4
R_26xfdqsDjAZsOBj,sword,walk,fear,4,4,6,3,4,7,3,5,3,6,6,4
R_26xfdqsDjAZsOBj,sword,walk,defensive,3,4,7,1,7,7,5,3,3,6,5,4
R_1JXH07PVFnGP96i,axe,idle,rage,1,3,2,3,2,2,6,3,5,3,3,2
R_1JXH07PVFnGP96i,axe,idle,confident,2,3,2,7,7,6,4,6,5,7,5,4
R_1JXH07PVFnGP96i,axe,idle,fear,7,5,3,3,4,6,5,4,4,3,4,6
R_1JXH07PVFnGP96i,axe,idle,defensive,3,6,3,2,3,3,4,1,4,2,4,6
R_1JXH07PVFnGP96i,axe,walk,rage,2,6,6,1,1,1,5,2,6,2,2,1
R_1JXH07PVFnGP96i,axe,walk,confident,2,3,3,7,7,6,4,7,5,7,6,7
R_1JXH07PVFnGP96i,axe,walk,fear,7,6,5,2,5,5,6,3,4,4,4,6
R_1JXH07PVFnGP96i,axe,walk,defensive,6,6,5,2,5,6,6,1,2,3,6,7
R_1JXH07PVFnGP96i,sword,idle,rage,2,5,3,1,1,1,4,2,4,3,4,1
R_1JXH07PVFnGP96i,sword,idle,confident,2,3,2,7,7,6,4,6,6,7,6,4
R_1JXH07PVFnGP96i,sword,idle,fear,7,6,4,2,3,6,4,4,4,6,4,5
R_1JXH07PVFnGP96i,sword,idle,defensive,2,6,4,2,2,2,4,1,4,1,4,7
R_1JXH07PVFnGP96i,sword,walk,rage,2,3,3,1,1,1,4,1,6,2,3,1
R_1JXH07PVFnGP96i,sword,walk,confident,3,3,2,7,7,6,5,7,3,7,7,6
R_1JXH07PVFnGP96i,sword,walk,fear,7,6,6,2,4,7,6,4,4,7,4,3
R_1JXH07PVFnGP96i,sword,walk,defensive,3,7,5,2,3,3,6,2,3,3,3,5
R_1pLoYPRB0y4DZ3N,axe,idle,rage,2,3,2,2,2,2,7,2,7,2,1,1
R_1pLoYPRB0y4DZ3N,axe,idle,confident,3,2,1,6,7,6,7,7,2,7,6,4
R_1pLoYPRB0y4DZ3N,axe,idle,fear,7,3,3,3,2,4,7,5,2,3,5,5
R_1pLoYPRB0y4DZ3N,axe,idle,defensive,5,5,2,3,4,6,7,2,3,4,6,6
R_1pLoYPRB0y4DZ3N,axe,walk,rage,2,2,6,2,1,1,3,2,6,3,3,1
R_1pLoYPRB0y4DZ3N,axe,walk,confident,2,2,1,6,7,5,3,7,1,7,7,4
R_1pLoYPRB0y4DZ3N,axe,walk,fear,7,4,6,3,3,7,5,6,5,3,6,7
R_1pLoYPRB0y4DZ3N,axe,walk,defensive,6,5,2,2,2,6,6,2,3,3,6,7
R_1pLoYPRB0y4DZ3N,sword,idle,rage,2,3,1,1,1,1,7,2,6,2,3,1
R_1pLoYPRB0y4DZ3N,sword,idle,confident,2,2,1,6,7,5,7,7,1,7,7,4
R_1pLoYPRB0y4DZ3N,sword,idle,fear,7,3,2,2,3,4,7,2,3,3,5,5
R_1pLoYPRB0y4DZ3N,sword,idle,defensive,5,5,3,2,2,5,5,2,3,3,6,7
R_1pLoYPRB0y4DZ3N,sword,walk,rage,2,3,2,2,1,1,3,2,6,3,3,1
R_1pLoYPRB0y4DZ3N,sword,walk,confident,3,3,1,6,7,6,5,7,2,7,7,4
R_1pLoYPRB0y4DZ3N,sword,walk,fear,7,4,2,2,3,6,4,3,3,3,6,6
R_1pLoYPRB0y4DZ3N,sword,walk,defensive,5,3,5,2,3,3,5,2,5,1,3,7
R_1lmXgc4t0fY1cjS,axe,idle,rage,3,5,3,2,3,3,4,3,4,3,1,3
R_1lmXgc4t0fY1cjS,axe,idle,confident,3,3,7,7,7,6,4,7,3,6,5,4
R_1lmXgc4t0fY1cjS,axe,idle,fear,7,5,5,2,4,6,4,3,4,3,5,4
R_1lmXgc4t0fY1cjS,axe,idle,defensive,2,5,4,2,1,1,4,1,6,4,6,7
R_1lmXgc4t0fY1cjS,axe,walk,rage,3,3,6,2,2,2,3,5,6,4,3,3
R_1lmXgc4t0fY1cjS,axe,walk,confident,3,4,6,7,7,7,6,6,3,5,4,4
R_1lmXgc4t0fY1cjS,axe,walk,fear,7,3,5,3,4,4,3,5,5,4,3,4
R_1lmXgc4t0fY1cjS,axe,walk,defensive,3,4,4,3,3,3,3,3,3,4,4,6
R_1lmXgc4t0fY1cjS,sword,idle,rage,4,3,2,2,1,1,4,1,2,3,2,4
R_1lmXgc4t0fY1cjS,sword,idle,confident,2,3,2,7,7,6,4,5,3,5,4,4
R_1lmXgc4t0fY1cjS,sword,idle,fear,7,5,2,1,3,5,4,2,3,5,5,4
R_1lmXgc4t0fY1cjS,sword,idle,defensive,4,3,3,2,2,2,4,3,5,1,2,6
R_1lmXgc4t0fY1cjS,sword,walk,rage,3,4,3,2,3,3,7,2,6,3,3,3
R_1lmXgc4t0fY1cjS,sword,walk,confident,4,1,5,7,7,7,7,7,3,4,5,4
R_1lmXgc4t0fY1cjS,sword,walk,fear,6,5,4,2,4,4,6,4,5,4,4,4
R_1lmXgc4t0fY1cjS,sword,walk,defensive,3,5,4,2,4,3,5,3,5,2,3,4
R_1oedIOlC0lsVs9N,axe,idle,rage,2,3,4,2,2,2,7,4,6,2,3,6
R_1oedIOlC0lsVs9N,axe,idle,confident,3,2,3,6,6,5,7,6,2,7,6,3
R_1oedIOlC0lsVs9N,axe,idle,fear,6,5,5,3,4,5,7,6,3,5,5,4
R_1oedIOlC0lsVs9N,axe,idle,defensive,2,4,3,3,3,2,7,2,3,3,4,7
R_1oedIOlC0lsVs9N,axe,walk,rage,2,2,6,1,3,3,5,6,6,4,3,3
R_1oedIOlC0lsVs9N,axe,walk,confident,3,3,2,6,7,6,4,5,2,6,5,3
R_1oedIOlC0lsVs9N,axe,walk,fear,6,6,6,3,3,3,3,7,3,6,5,4
R_1oedIOlC0lsVs9N,axe,walk,defensive,5,5,4,2,3,3,4,2,2,3,5,7
R_1oedIOlC0lsVs9N,sword,idle,rage,2,2,3,2,2,2,7,3,6,2,3,3
R_1oedIOlC0lsVs9N,sword,idle,confident,3,3,3,6,6,5,7,6,2,7,3,3
R_1oedIOlC0lsVs9N,sword,idle,fear,7,3,3,3,4,4,7,4,4,4,4,4
R_1oedIOlC0lsVs9N,sword,idle,defensive,2,6,3,2,3,2,7,3,5,2,3,7
R_1oedIOlC0lsVs9N,sword,walk,rage,2,2,5,2,3,2,4,3,5,3,3,2
R_1oedIOlC0lsVs9N,sword,walk,confident,5,3,3,6,6,5,5,5,3,6,6,4
R_1oedIOlC0lsVs9N,sword,walk,fear,6,5,3,3,5,6,5,3,4,6,4,4
R_1oedIOlC0lsVs9N,sword,walk,defensive,3,6,6,2,2,2,3,5,5,2,3,6
R_1gkJRq8ZcdyCH3H,axe,idle,rage,2,3,3,1,1,1,7,3,7,3,2,2
R_1gkJRq8ZcdyCH3H,axe,idle,confident,1,3,2,7,7,5,7,7,2,7,7,4
R_1gkJRq8ZcdyCH3H,axe,idle,fear,7,5,4,3,3,7,7,5,3,2,6,7
R_1gkJRq8ZcdyCH3H,axe,idle,defensive,2,5,3,4,4,2,7,1,4,6,6,7
R_1gkJRq8ZcdyCH3H,axe,walk,rage,3,6,7,1,3,4,6,6,6,2,2,3
R_1gkJRq8ZcdyCH3H,axe,walk,confident,2,3,1,7,7,5,4,7,1,7,7,4
R_1gkJRq8ZcdyCH3H,axe,walk,fear,7,5,6,3,4,5,6,6,6,4,3,6
R_1gkJRq8ZcdyCH3H,axe,walk,defensive,3,5,4,3,4,5,7,1,2,6,6,7
R_1gkJRq8ZcdyCH3H,sword,idle,rage,2,3,2,1,1,2,7,1,6,6,5,1
R_1gkJRq8ZcdyCH3H,sword,idle,confident,1,2,2,7,7,7,7,7,1,7,7,4
R_1gkJRq8ZcdyCH3H,sword,idle,fear,7,5,2,3,4,6,7,4,3,5,5,7
R_1gkJRq8ZcdyCH3H,sword,idle,defensive,1,6,3,2,2,1,7,2,5,2,3,7
R_1gkJRq8ZcdyCH3H,sword,walk,rage,5,3,2,1,3,2,4,1,6,5,5,2
R_1gkJRq8ZcdyCH3H,sword,walk,confident,5,3,3,6,5,4,5,5,2,5,6,4
R_1gkJRq8ZcdyCH3H,sword,walk,fear,7,5,5,3,3,6,5,3,5,5,5,4
R_1gkJRq8ZcdyCH3H,sword,walk,defensive,5,7,4,3,5,6,5,2,4,3,3,6
